…
## Loading and preprocessing the data
### 1. Load the data (i.e. read.csv())

```r
library(plyr)
library(ggplot2)
options(scipen=999)

activity <- read.csv("activity.csv")
as_data_frame(activity)
```

```
## # A tibble: 17,568 × 3
##    steps       date interval
##    <int>     <fctr>    <int>
## 1     NA 2012-10-01        0
## 2     NA 2012-10-01        5
## 3     NA 2012-10-01       10
## 4     NA 2012-10-01       15
## 5     NA 2012-10-01       20
## 6     NA 2012-10-01       25
## 7     NA 2012-10-01       30
## 8     NA 2012-10-01       35
## 9     NA 2012-10-01       40
## 10    NA 2012-10-01       45
## # ... with 17,558 more rows
```

### 2. Process/transform the data (if necessary) into a format suitable for your analysis

```r
activity <- transform(activity, date = as.Date(as.character(date), "%Y-%m-%d"))
as_data_frame(activity)
```

```
## # A tibble: 17,568 × 3
##    steps       date interval
##    <int>     <date>    <int>
## 1     NA 2012-10-01        0
## 2     NA 2012-10-01        5
## 3     NA 2012-10-01       10
## 4     NA 2012-10-01       15
## 5     NA 2012-10-01       20
## 6     NA 2012-10-01       25
## 7     NA 2012-10-01       30
## 8     NA 2012-10-01       35
## 9     NA 2012-10-01       40
## 10    NA 2012-10-01       45
## # ... with 17,558 more rows
```
…
## What is mean total number of steps taken per day?
For this part of the assignment, you can ignore the missing values in the dataset.
### 1. Make a histogram of the total number of steps taken each day

```r
total_steps <- ddply(activity, .(date), summarize, total = sum(steps, na.rm = TRUE))
as_data_frame(total_steps)
```

```
## # A tibble: 61 × 2
##          date total
##        <date> <int>
## 1  2012-10-01     0
## 2  2012-10-02   126
## 3  2012-10-03 11352
## 4  2012-10-04 12116
## 5  2012-10-05 13294
## 6  2012-10-06 15420
## 7  2012-10-07 11015
## 8  2012-10-08     0
## 9  2012-10-09 12811
## 10 2012-10-10  9900
## # ... with 51 more rows
```
…
* **Mean** of total number of steps per day: 9354
* **Median**  of total number of steps per day: 10395

## What is the average daily activity pattern?
### 1. Make a time series plot (i.e. type = "l") of the 5-minute interval (x-axis) and the average number of steps taken, averaged across all days (y-axis)

```r
activity_by_interval <- aggregate(steps ~ interval, activity, mean, na.rm = TRUE)
as_data_frame(activity_by_interval)
```

```
## # A tibble: 288 × 2
##    interval     steps
##       <int>     <dbl>
## 1         0 1.7169811
## 2         5 0.3396226
## 3        10 0.1320755
## 4        15 0.1509434
## 5        20 0.0754717
## 6        25 2.0943396
## 7        30 0.5283019
## 8        35 0.8679245
## 9        40 0.0000000
## 10       45 1.4716981
## # ... with 278 more rows
```
…
    # can't have negative steps
    value <- max(value, 0)
    
    return(value)
  } else {
    return(as.numeric(X["steps"]))
  }
}, activity_model) 

activity_filled <- activity_model_data[,1:3]
as_data_frame(activity_filled)
```

```
## # A tibble: 17,568 × 3
##    steps       date interval
##    <dbl>     <date>    <int>
## 1      2 2012-10-01        0
## 2      0 2012-10-01        5
## 3      0 2012-10-01       10
## 4      0 2012-10-01       15
## 5      0 2012-10-01       20
## 6      2 2012-10-01       25
## 7      1 2012-10-01       30
## 8      1 2012-10-01       35
## 9      0 2012-10-01       40
## 10     1 2012-10-01       45
## # ... with 17,558 more rows
```

### 4. Make a histogram of the total number of steps taken each day and Calculate and report the mean and median total number of steps taken per day.

```r
total_steps_filled <- ddply(activity_filled, .(date), summarize, total = sum(steps, na.rm = TRUE))
as_data_frame(total_steps_filled)
```

```
## # A tibble: 61 × 2
##          date total
##        <date> <dbl>
## 1  2012-10-01 10762
## 2  2012-10-02   126
## 3  2012-10-03 11352
## 4  2012-10-04 12116
## 5  2012-10-05 13294
## 6  2012-10-06 15420
## 7  2012-10-07 11015
## 8  2012-10-08 10762
## 9  2012-10-09 12811
## 10 2012-10-10  9900
## # ... with 51 more rows
```
…
